Tidy Modeling with R: Notes & Exercises - 2 Ch. 3: A Review of R Modeling Fundamentals
…
data(crickets, package = "modeldata")
names(crickets)

[1] "species" "temp"    "rate"   

crickets

# A tibble: 31 × 3
   species           temp  rate
   <fct>            <dbl> <dbl>
 1 O. exclamationis  20.8  67.9
 2 O. exclamationis  20.8  65.1
 3 O. exclamationis  24    77.3
 4 O. exclamationis  24    78.7
 5 O. exclamationis  24    79.4
 6 O. exclamationis  24    80.4
 7 O. exclamationis  26.2  85.8
 8 O. exclamationis  26.2  86.6
 9 O. exclamationis  26.2  87.5
10 O. exclamationis  26.2  89.1
# … with 21 more rows
…
